^C:\USERS\AMYSC\SOURCE\REPOS\ADS.TICTACTOE\ADS.TICTACTOE\MAIN.CPP|C:\USERS\AMYSC\SOURCE\REPOS\ADS.TICTACTOE\ADS.TICTACTOE\TICTACTOE.CPP
C:\USERS\AMYSC\SOURCE\REPOS\ADS.TICTACTOE\ADS.TICTACTOE\X64\DEBUG\VC143.PDB
C:\USERS\AMYSC\SOURCE\REPOS\ADS.TICTACTOE\ADS.TICTACTOE\X64\DEBUG\VC143.IDB
C:\USERS\AMYSC\SOURCE\REPOS\ADS.TICTACTOE\ADS.TICTACTOE\X64\DEBUG\MAIN.OBJ
C:\USERS\AMYSC\SOURCE\REPOS\ADS.TICTACTOE\ADS.TICTACTOE\X64\DEBUG\TICTACTOE.OBJ
^C:\USERS\AMYSC\SOURCE\REPOS\ADS.TICTACTOE\ADS.TICTACTOE\TICTACTOE.CPP
C:\USERS\AMYSC\SOURCE\REPOS\ADS.TICTACTOE\ADS.TICTACTOE\X64\DEBUG\VC143.PDB
^C:\USERS\AMYSC\SOURCE\REPOS\ADS.TICTACTOE\ADS.TICTACTOE\MAIN.CPP
C:\USERS\AMYSC\SOURCE\REPOS\ADS.TICTACTOE\ADS.TICTACTOE\X64\DEBUG\VC143.PDB
